{
  "name": "W9cQJwyKum7pk4EASKT1p4tF--s",
  "script": "/var/www/panther/cms/builds/public/W9cQJwyKum7pk4EASKT1p4tF--s/index.js",
  "output": "/var/www/panther/cms/logs/W9cQJwyKum7pk4EASKT1p4tF-staging-stdout.log",
  "error": "/var/www/panther/cms/logs/W9cQJwyKum7pk4EASKT1p4tF-staging-error.log",
  "watch": false,
  "env": {
    "NODE_ENV": "staging"
  }
}
